<?xml version="1.0" encoding="UTF-8"?>
<svg id="Layer_1" data-name="Layer 1" xmlns="http://www.w3.org/2000/svg" viewBox="0 0 32 32">
  <defs>
    <style>
      .cls-1 {
        fill: #fff;
      }
    </style>
  </defs>
  <path class="cls-1" d="M27.6,10.87c-.07-1.35-.29-2.8-1.99-4.33,0,0,2.37,.87,2.43,2.96,.92-2.05-3.38-5.58-5.74-6.69,5.09,1.85,6.81,4.07,6.84,5.77,.63-1.96,.58-4.37-1.8-6.36-2.39-1.99-5.02-1.81-6.47-.93-.76,.47-1.19,.75-1.43,.98,.5-.02,1.2,.06,1.84,.2,0,0-1.26-.05-1.19,.06,.65,.13,2.21,.88,2.43,1.79-.79-.52-.96-.8-2.18-1.31-.85-.35-1.74-.05-2.28,.28-.04,.03-.08,.05-.12,.08,0,0,0,0,0,0-.22,.16-.46,.36-.71,.62-.7,.72-1.22,1.23-1.43,1.61,2.11-.53,3.84,1.37,3.84,1.37-2.61-1.44-3.96-.95-4.19-.88-.42,.14-1.26,.5-1.82,1.23-.64,.84-1.33,1.34-1.54,1.95,1.79,.03,2.75,.6,2.78,.63,0,0-1.46-.48-3.18-.14-.43,.15-1.24,.61-2.13,2.02-1.31,2.06-1.03,1.64-1.15,2.26-.15,.78-1.49,.88-2.29,2.22-.8,1.34-1.17,1.65-1.12,2.04,0,0-1.08,.68-1.31,2.19,0,0-.57,.24-1.34,1.58-.77,1.35-3,3.36,1.87,6.86,2.6,1.87,4.95,3.67,8.21,1.18,0,0-.03-.36,.31-.78,.34-.42,1.16-.4,1.16-.4,0,0,1.14-.7,2.19-1.82,1.06-1.12,1.42-2.48,1.42-2.48,0,0,.75,.09,1.73-1.02,.99-1.11,2.18-2.47,2.39-3.48,0,0,.5-.61,.92-.57,0,0,1.99-2.04,2.18-3.59,.28-3.32-3.79-7.15-3.79-7.15,2.33,1.05,4.17,3.93,4.48,6.04,.49-1.28-.89-3.82-.89-3.82,1.49,1.31,1.85,2.57,1.61,3.54,.03-.05,.07-.09,.1-.14,.58-.87,1.43-2.61,1.38-3.58h-.02ZM2.39,25.04c-.46,.25,.07,1.54,.07,1.54-.84-.98-.76-1.65-.57-1.84,1.49-1.49,6.12,2.12,6.98,5.36-2.63-3.61-5.39-5.64-6.48-5.06Zm9.97,4.64c-.21-1.01-2.54-3.8-2.55-3.81,0,0,2.09,1.13,2.88,2.4,0,0-.52,.25-.33,1.42ZM4.33,20.73s3.2,.69,6.63,3.98c2.65,2.54,2.65,3.9,2.65,3.9-1.61-3.94-7.37-6.7-9.28-7.88Zm12.8,2.93c-.43-1.93-4.49-6.15-6.82-7.44,0,0,2.53,.97,4.61,3.27,2.79,3.09,2.21,4.17,2.21,4.17Zm-7.92-9.38c.06-.25,.15-.69,.15-.69,5.84,1.35,9.36,6.65,9.34,9.41-.74-3.55-5.31-7.4-9.49-8.71Zm12.26,5.27l-.3-.41c-.59-.78-1.05-1.4-2.07-2.35l.34-.37c1.05,.98,1.55,1.65,2.13,2.42l.3,.4-.4,.3Zm1.18-2.88c.72,1.52-.11,2.64-.11,2.64,.15-.85,.32-2.55-3.83-6.07-.64-.54-2.38-2.44-2.38-2.44,3.59,1.99,5.58,4.29,6.32,5.86Z"/>
</svg>