<?xml version="1.0" encoding="UTF-8"?>
<svg id="Layer_1" data-name="Layer 1" xmlns="http://www.w3.org/2000/svg" viewBox="0 0 32 32">
  <defs>
    <style>
      .cls-1 {
        fill: #fff;
      }
    </style>
  </defs>
  <path class="cls-1" d="M28.11,2.6c-.33-.25-1.94,.43-1.1,1.36,1.02,1.13,1.92,1.68,.69,6.67,0,0-1.7-.41-2.89,.65,0,0,3.75-.43,4.25,2.61,0,0,.6-1.73-.73-2.93,0,0,2.37-6.41-.22-8.35Zm-1.05,.73c.22,.58,1.11-.17,.97-.43,.29,.63-.75,1.66-.97,.43Z"/>
  <path class="cls-1" d="M26.62,12.31c-4.75-1.9-7.03,4.66-8.63,7.38-1.6,2.72-1.73,5.78-7.85,6.21-6.13,.43-8.22-4.47-8.93-3.8-.82,.78-.6,3.19,4.83,6.47,5.44,3.28,10.57,2.29,16.18-.99,5.61-3.28,9.15-13.38,4.4-15.27Zm-10.57,12.53h-.22s-.15-.46-.15-.46l.4,.02-.02,.44Zm.7,.73l-.27-.02v-1.49s.38,.03,.38,.03l-.11,1.48Zm.76-.38l-.26-.02-.05-1.22,.4,.03-.09,1.21Zm.72-.61l-.25-.02-.07-1.01,.4,.03-.07,1Zm.67-.7l-.23-.02-.11-.76,.4,.03-.06,.75Zm.66-.6l-.3-.02-.05-.58,.4,.03-.04,.58Zm.71-.85l-.22-.02-.16-.36,.4,.03-.03,.35Zm.42-2.64l-.32-.32,.21-.55,.35,.61-.23,.26Zm.33-.88l-.35-.36,.23-.56,.31,.76-.19,.16Zm.4-.83l-.36-.53,.23-.59,.39,1-.26,.13Zm.65-.6l-.59-.87,.28-.59,.6,1.24-.29,.23Zm.54-.9l-.64-.91,.35-.62,.57,1.43-.28,.1Zm.65-1.02l-.74-.83,.37-.4,.65,1.15-.29,.08Zm.46-.75l-.62-.66,.35-.36,.57,.98-.3,.04Zm.43-.82l-.45-.36,.44-.3,.3,.64-.3,.02Zm.6-.41l-.35-.36,.51-.18,.03,.38-.19,.16Z"/>
</svg>