<?xml version="1.0" encoding="UTF-8"?>
<svg id="Layer_1" data-name="Layer 1" xmlns="http://www.w3.org/2000/svg" viewBox="0 0 32 32">
  <defs>
    <style>
      .cls-1 {
        fill: #fff;
      }
    </style>
  </defs>
  <path class="cls-1" d="M1.07,27.43c-.69,1.07,1.2,3.79,2.47,2.91,.86-.59,3.04-2.31,3.9-2.88,.22-.13,3.71-2.2,6.51-4.22l-.18-.07c-.2-.13-.28-.16-.32-.21-.07-.08-.12-.19-.18-.28,.13-.07,.28-.22,.38-.19,.2,.07,.36,.23,.53,.36,.05,.04,.11,.08,.16,.12,.15-.11,.29-.22,.44-.33,0-.03,0-.06,0-.09-.06-.31-.24-.6-.39-.89-.1-.2-.23-.39-.29-.63,.59,.21,1.25,.26,1.61,.87,.02-.02,.04-.03,.06-.05,0,0,0,0,0,0,.53-.39,1.06-.78,1.58-1.18,.03-.04,.05-.08,.08-.11,.1-.14,0-.45-.07-.67-.08-.25-.22-.47-.27-.8,.23,.1,.46,.21,.7,.29,.2,.07,.42,.14,.63,.13,.37-.02,.46-.24,.27-.55-.1-.16-.26-.3-.31-.47-.05-.17,0-.37,0-.56,.16,.03,.32,.05,.47,.09,.29,.09,.58,.26,.87,.26,.38,0,.47-.21,.24-.52-.11-.15-.28-.25-.41-.39-.07-.07-.11-.16-.17-.25,.1-.05,.21-.13,.31-.13,.4,.01,.62,.27,.79,.6,.04,.08,.09,.17,.16,.3,.17-.13,.32-.26,.48-.39,.37-.34,.73-.7,1.09-1.06-.07-.76-.13-1.41-.19-2.07,.74,.17,1.08,.41,1.18,1.04,.45-.48,.88-.97,1.3-1.49,.01-.02,.03-.03,.04-.05,.09-.13,.09-.33,.1-.5,.03-.35-.07-.75,.07-1.03,.18-.34,.56-.13,.86-.03,.04,.01,.09,0,.15,0,.17-.31,.33-.61,.5-.92,.3-.56,.29-.61-.22-.96-.52-.35-.64-.69-.41-1.44,.27,.64,.7,.84,1.3,.77,.74-.09,.62-.82,1.06-1.18-.21-.09-.34-.17-.49-.22-.72-.21-.57-.92-.79-1.42-.03-.06,.12-.2,.19-.3,.13,.09,.29,.17,.39,.29,.12,.15,.16,.42,.3,.48,.29,.13,.62,.16,.98,.24,.19-.36,.38-.74,.64-1.23-1.09,.35-1.23-.39-1.46-1.06,.52-.24,.96-.02,1.39,.17,.16,.07,.31,.12,.44,.08,.13-.3,.25-.61,.37-.93-.03-.1-.1-.19-.22-.28-.12-.09-.26-.15-.4-.22,.21-.31,.32-.35,.86-.17,.34-.93,.65-1.89,.92-2.91-2.57,1.12-4.88,2.36-6.99,3.68-.11,.12-.22,.23-.38,.24-.16,.1-.32,.2-.47,.3,.09,.24,.18,.46,.27,.69l-.09,.08c-.24-.14-.47-.28-.71-.42-.24,.16-.48,.32-.71,.49-.08,.37,.06,.7,.41,1.11,.1,.11,.14,.26,.22,.4-.04,.04-.08,.08-.12,.12-.49-.25-.98-.48-1.46-.74-.05-.03-.13-.05-.21-.06-.36,.27-.72,.53-1.07,.8,.06,.34,.15,.67,.31,.95,.18,.32,.11,.53-.06,.71-.23,.24-.48,.08-.65-.12-.14-.17-.24-.37-.36-.56-.06-.1-.13-.17-.21-.2-.31,.25-.61,.5-.9,.74,.03,.12,.09,.25,.19,.39,.15,.2,.26,.44,.38,.66-.23,.06-.34,.05-.44,.01-.98-.42-1-.44-1.8,.66-.26,.35-.35,.73-.13,1.16,.11,.21,.1,.47,.15,.71-.04,.04-.09,.08-.13,.11-.22-.11-.44-.23-.67-.34-.1-.05-.29-.12-.31-.09-.08,.11-.14,.26-.15,.4,0,.09,.15,.18,.15,.28,.01,.19,.03,.41-.07,.55-.08,.12-.31,.15-.47,.18-.32,.07-.71,.02-.97,.18-.73,.44-1.42,.93-2.13,1.4-.94,1.05-1.82,2.09-2.66,3.1-3.75,3.8-3.86,7.51-3.86,7.51,0,0,2.09,.09,4.59-.86-2.19,1.22-5.62,2.88-6.87,3.06,0,0,.85-2.78,2-4.74,0,0-2.55,2.06-3.65,3.77Zm11.82-7.11c-2.2,2.23-3.9,3.62-5.56,4.05-.32,.19-.63,.37-.95,.55-.02,.01-.06,0-.17,.02,.45-.86,1.43-1.35,1.49-2.46,.15,.07,.25,.12,.35,.18,.41,.24,.76,.07,1.11-.15,.34-.22,.23-.51,.17-.8-.04-.23-.13-.47-.11-.69,.01-.15,.16-.31,.28-.43,.03-.03,.25,.11,.34,.21,.25,.32,.41,.8,.89,.76,.47-.04,.63-.51,.85-.88,.15-.25,.11-.42,0-.65-.19-.37-.36-.74-.53-1.12-.04-.09-.03-.2-.05-.29,.12-.01,.26-.08,.34-.03,.26,.17,.52,.36,.75,.58,.21,.19,.34,.18,.55-.02,1.1-1.07,6.24-5.89,6.36-5.98,.02-.01,.06,0,.16,.01-1.26,1.92-4.49,5.35-6.28,7.15Z"/>
</svg>