<?xml version="1.0" encoding="UTF-8"?>
<svg id="Layer_1" data-name="Layer 1" xmlns="http://www.w3.org/2000/svg" viewBox="0 0 48.72 43.5">
  <defs>
    <style>
      .cls-1 {
        fill: #fff;
      }
    </style>
  </defs>
  <path class="cls-1" d="M15.99,43.5c-3.41,0-7.09-.6-10.72-2.48-.16-.08-.29-.2-.4-.31-.06-.06-.12-.11-.19-.16-.11-.08-.23-.17-.34-.26-.27-.21-.53-.41-.79-.51-.34-.13-.72-.18-1.02-.21-.12,0-.23-.03-.32-.04l-.21-.04-2-6.25,.18-.15c.54-.47,.68-1.17,.42-2.21-.18-.73-.6-2.45,.91-3.28-.02,0,.03-.14,.07-.24,.05-.13,.1-.27,.16-.43l.39-.88,.28,.92c.17,.55,.35,1.17,.62,1.28,.08,.03,.18,.02,.29-.01-.07-.4,0-.71,.17-.94,.28-.35,.74-.39,1.16-.38,.02,0,.1-.06,.15-.1,.07-.04,.13-.09,.2-.12l.25-.13,.19,.21s.04,.04,.06,.07c.54-.1,.96-.04,1.29,.19,.03,.02,.06,.04,.09,.07l-.63-4.7-.66,.43,.35-1.74-2.13-1.01,.16-.33s.02-.05,.03-.1c.1-.31,.24-.74,.59-.83,1.26-.35,1.59-1.23,1.18-3.12-.06-.27-.08-.55-.09-.82,0-.1-.01-.21-.02-.31l-.04-.57c-.12-1.58-.23-3.06-1.46-3.96-.39-.29-.1-1.48-.1-1.5l.06-.24,.27-.09c.18-.02,.41-.07,.5-.19,.12-.17,.04-.54-.03-.87-.05-.26-.11-.53-.1-.79,.01-.37-.02-.74-.06-1.13-.02-.18-.03-.36-.04-.53l-.02-.34,.84-.1,.58,1.29v1.85l.77-.75,.21,.08c2.04,.77,4.11,1.83,5.4,4.34l.03,.1c.53,2.81-.03,4.97-1.72,6.57,3.43,1.68,4.81,4.95,4.2,9.98l1.42,.32,.26-.11s.05-.02,.08-.03l-.15-.42,.48,.31c.26-.07,.54-.08,.79,.05,.3,.15,.49,.47,.6,.95l.18,.83-.62-.39c.29,.53,.67,.73,1.88,1.35l.07,.04c.1,.05,.18,.12,.26,.2-.05-.37-.1-.73-.17-1.09-.04-.02-.11-.06-.16-.08-.09-.04-.18-.08-.25-.13l-.3-.19,.19-.3c.06-.1,.15-.2,.23-.31,.08-.1,.21-.26,.23-.33-.19-1.34-.4-2.72-.61-4.09-.15-.99-.31-1.98-.45-2.98-.05-.33-.06-.67-.06-1-.01-.44-.02-.85-.12-1.22-.23-.82-.55-1.47-.9-1.79-.33-.3-.64-.64-.62-1.05,.01-.4,.31-.7,.64-.97,.15-.12,.31-.46,.3-.58-.4-3.09-.84-6.16-1.3-9.14-.03-.16-.17-.34-.32-.53-.09-.11-.18-.23-.25-.34l-.41-.55,.5-.91-5.66,1.16,1.76-1.65-1.1,.06,.68-.66c.35-.34,.74-.59,1.17-.73,.42-.14,.83-.26,1.25-.39,.49-.14,.97-.29,1.45-.45,.32-.11,.8-.23,1.17,.03,.41,.28,.47,.84,.48,1.23,0,.14,.02,.27,.03,.42l.12-.03-.1,.18c.01,.09,.03,.18,.04,.28h0s1.96-.88,1.96-.88l.17,.24c.34,.48,.68,.95,1.02,1.42,.77,1.06,1.49,2.06,2.19,3.12,1.58,2.41,1.3,4.64-.79,6.43-.07,.06-.14,.12-.2,.18l.17,.2c.26,.3,.5,.58,.73,.88,3.59,4.53,4.79,9.36,3.67,14.79-.04,.21-.03,.46-.02,.75v.05l.27-.06-.02-.47,3.29-.91,.02,.56h.08s.01-.06,.02-.09l.03-.12h0c.05-.17,.15-.31,.36-.29,.08-.01,.14-.02,.21-.03,.12-.02,.21-.03,.25-.06,.04-.03,.11-.08,.14-.13-.09-.88-.21-1.82-.39-3.03-.05-.34-.09-.69-.13-1.04-.1-.86-.21-1.76-.45-2.55-.12-.4-.13-.84-.15-1.27-.03-.97-.08-1.58-.83-1.84l-.16-.05-.06-.16c-.08-.21,.04-1.11,.22-1.45,.15-.28,.45-.37,.73-.45,.02,0,.03,0,.05-.01l-.77-2.36,.02-.09c.7-3.35-.09-6.24-2.36-8.59l-.4-.42,.55-.17c1.51-.47,1.62-1.48,1.28-3.19-.06-.29-.05-.59-.04-.87V.05l.95-.05,.04,.32c.03,.19,.06,.38,.09,.57,.07,.44,.15,.89,.15,1.35,0,1.17,.45,1.65,1.22,2.1,5.84,3.37,10.74,8.37,16.09,14.08l1.86,2.71-.79-.1c-2.88-.37-5.89-.02-9.2,1.07l-.13,3.55c.31-.08,.66-.15,1.03-.16,.38,0,.99,.25,1.15,.7,.12,.35,.1,.64-.05,.88-.15,.24-.4,.39-.78,.46l.22,.27,5.16-4.56-.62,1.45c-.04,.1-.08,.21-.11,.31-.1,.29-.2,.59-.41,.8-.8,.77-1.64,1.52-2.45,2.25l-.63,.56c.23,.26,.51,.56,.63,.56h0c.15,0,.55-.55,.74-.8,.31-.41,.99-.76,1.48-.6,.48,.15,1,.9,.99,1.41-.02,.54-.24,1.52-.75,1.89-.9,.64-1.92,1.06-2.8,1.38-.32,.12-.42,.24-.6,.75-.09,.26-.18,.53-.27,.8-.47,1.4-.95,2.85-1.74,3.97-.77,1.09-1.74,1.97-2.68,2.81-.4,.36-.81,.73-1.2,1.11l-.07,.07-.93,.19h-.05c-.15,0-.29-.03-.44-.04-.3-.03-.59-.06-.86-.04-.98,.07-1.96,.11-2.94,.15-2.28,.1-4.64,.21-6.92,.61-2.04,.36-4.35,.66-6.79,.66h.08Zm-13.44-4.64h.07c.32,.04,.76,.1,1.18,.26,.36,.14,.67,.38,.97,.62,.1,.08,.21,.16,.31,.24,.09,.06,.17,.14,.25,.21,.09,.08,.18,.16,.25,.2,6.04,3.14,12.29,2.58,17.06,1.75,2.32-.41,4.7-.51,7.01-.62,.98-.04,1.95-.09,2.93-.15,.34-.03,.66,0,.98,.04,.12,0,.24,.03,.37,.03l.63-.13c.37-.36,.76-.71,1.15-1.06,.91-.82,1.85-1.66,2.57-2.69,.73-1.04,1.2-2.44,1.65-3.79l.27-.81c.22-.63,.43-.97,1.02-1.19,.83-.31,1.8-.7,2.63-1.3,.21-.15,.43-.81,.45-1.33,0-.2-.33-.65-.49-.7-.13-.04-.52,.11-.69,.35-.5,.67-.83,1.08-1.29,1.09-.47,0-.86-.4-1.43-1.07l-.1-.12-.14,.13-1.34-1.6,.46-.18c.07-.03,.13-.06,.19-.08,.12-.05,.22-.1,.35-.12,.29-.04,.36-.12,.37-.14,.03-.05,.02-.15-.02-.28-.03-.07-.3-.22-.48-.22h0c-.29,0-.6,.08-.9,.15-.14,.04-.27,.07-.41,.1l-.44,.09,.18-4.97,.23-.08c3.21-1.08,6.15-1.5,8.97-1.26l-.94-1.37c-4.29-4.57-9.67-10.32-15.89-13.91-.62-.36-1.04-.76-1.29-1.27-.15,.62-.53,1.21-1.35,1.6,.96,1.09,1.63,2.27,2.03,3.56l.44-.24,.19,.22c.19,.23,.39,.46,.58,.69,.44,.51,.89,1.05,1.32,1.6,.69,.89,.79,1.9,.29,2.93-.28,.57-.68,.88-1.1,.85-.22-.01-.63-.14-.86-.83h0c-.17-.52-.33-1.06-.47-1.61-.04,.51-.11,1.04-.22,1.58l.92,2.83-.3,.13c-.15,.06-.3,.11-.43,.15-.12,.03-.28,.08-.31,.12-.07,.14-.13,.5-.15,.74,1.01,.49,1.04,1.54,1.07,2.4,.01,.4,.02,.78,.12,1.08,.17,.57,.28,1.17,.36,1.77-.09-1.5-.11-2.96-.12-4.46v-1.36l.47,.18c3.05,1.12,3.96,1.92,4.04,3.55,.08,1.57-1.12,3.9-2.29,4.46-.15,.07-.29,.05-.41,0l-1.17,1.67c.04,.36,.08,.7,.12,1.03,.03,.31-.26,.58-.44,.7l.07,.39h.08l.07,1.08-5.66,.72-.05-.46-.15,.03v-.44c0-.16,0-.3-.01-.45-.01-.32-.03-.63,.03-.93,1.07-5.2-.08-9.85-3.53-14.2-.23-.29-.46-.56-.71-.85l-.62-.72,.42-.38c.11-.1,.21-.19,.31-.28,1.81-1.55,2.03-3.39,.65-5.5-.69-1.05-1.41-2.05-2.17-3.1-.28-.39-.57-.79-.86-1.19l-2.29,1.04-.04-.3-.35,.64,.15,.21c.07,.12,.15,.21,.22,.3,.09,.12,.19,.24,.27,.38l-.07-.55,.57,.23c1.81,.74,3.19,2.53,3.21,4.18,.02,1.6-.73,2.85-2.17,3.63l1.99,.99-2.13,1.99-.02-.18c-.11,.24-.27,.45-.43,.58-.33,.26-.38,.38-.38,.43,0,.04,.03,.18,.39,.5,.58,.53,.92,1.45,1.11,2.12,.12,.45,.14,.93,.15,1.39,0,.32,.01,.63,.06,.92,.14,.99,.3,1.98,.45,2.97,0,.02,0,.05,.01,.07l-.46-4.82,.86,1.77c.91,1.87,1.11,3.94,.59,6.16l-.45,1.92c.05,.06,.08,.13,.1,.21,.11,.5,.17,1.01,.23,1.5l.62-.21-.05-.79,2.2-.13,.05,.88c.22,.29,.13,.71,.03,1.05l-.07,.24-2.07,.08-.06-.92-.63-.03c.02,.19,.05,.38,.07,.56l.08,.63-.58-.25c-.31-.13-.51-.39-.67-.59-.09-.12-.19-.24-.26-.28l-.07-.04c-1.18-.61-1.67-.87-2.04-1.41l-2.58,.21-.22-1.62-.55-.12,.04-.32c.7-5.16-.65-8.27-4.24-9.78l-.55-.23,.46-.37c1.81-1.47,2.42-3.44,1.9-6.21-1.08-2.07-2.7-3.07-4.79-3.88l-1.65,1.61v-.54c-.16,.16-.37,.26-.65,.32-.03,.2-.05,.5-.04,.65,.95,.74,1.32,1.75,1.49,2.83l.52-.29,.17,.32c.13,.25,.26,.49,.39,.74,.3,.55,.6,1.12,.86,1.72,.38,.88,.54,1.46,.33,1.94-.19,.45-.66,.71-1.39,.99l-.42,.16-.03-.25c-.16,.79-.64,1.47-1.75,1.8-.03,.05-.07,.15-.1,.24l2.01,.95-.13,.64,.19-.12,1.08,8.06-.56-.21c-.05-.02-.1-.03-.14-.05-.13-.04-.38-.11-.41-.38-.05-.52-.18-.85-.4-1-.19-.14-.49-.15-.91-.04-.16,.04-.28-.02-.37-.1-.13,.08-.27,.15-.46,.15-.4-.01-.54,.05-.58,.11-.02,.03-.1,.17,.02,.61l.08,.27-.25,.13c-.44,.23-.81,.28-1.14,.15-.34-.14-.56-.45-.73-.85-.05,.06-.1,.11-.18,.15-.73,.4-.9,1.12-.56,2.49,.3,1.2,.14,2.1-.47,2.75l1.72,5.39,.03,.03Zm19.78-7.59v.15l.87-.03c.03-.13,.01-.18,.01-.18,0,.03-.19,.05-.32,.05-.15,.01-.31,.03-.46,.02h-.1Zm5.9-1.28l.03,.22,.3-.04,.24-.25s-.57,.07-.57,.07Zm-12.75-1.3l.08,.58,1.12-.09-.18-.62-1.01,.13h-.01Zm4.89,.42c.07,.04,.13,.08,.19,.13l-.03-.34c-.05,.07-.1,.14-.15,.21h-.01Zm11.53-10.67v.33c.02,2.24,.04,4.37,.33,6.69l.4-.57,.29,.2,.27-.23s.02,.02,.03,.04c.88-.55,1.83-2.51,1.77-3.72-.05-1.09-.51-1.74-3.09-2.74ZM6.77,13.79l.42,3.16c.34-.16,.51-.29,.57-.43,.09-.21,0-.62-.33-1.39-.2-.46-.43-.91-.66-1.35h0Zm24.63,.06c.08,.25,.18,.34,.23,.35,.07,0,.24-.1,.41-.45,.38-.78,.31-1.51-.21-2.18-.42-.54-.86-1.06-1.3-1.57-.07-.08-.13-.16-.2-.23,.07,.28,.13,.55,.2,.83,.25,1.09,.52,2.21,.87,3.26h0Zm-12.21-.41l.08,.57,.37-.35s-.45-.22-.45-.22Zm-1.03-7.8l.8,5.98c.94-.65,1.41-1.57,1.39-2.74-.02-1.18-.94-2.51-2.2-3.24h.01Zm-3.78-3.67l-1.35,1.26,3.87-.8c-.02-.18-.04-.36-.05-.54-.01-.52-.13-.64-.17-.67-.05-.03-.18-.07-.54,.06-.49,.17-.99,.32-1.48,.47-.27,.08-.54,.16-.82,.25l.53-.03h.01Zm-5.76,26.73c-.2,0-.41-.06-.65-.18l-.17-.08-.98-7.31,.78,.88c1.48,1.68,2.09,3.16,2.06,4.97-.01,.84-.21,1.37-.59,1.6-.14,.08-.29,.12-.45,.12Zm-.16-.74c.11,.04,.19,.04,.24,.01,.04-.02,.23-.18,.25-1,.02-1.25-.31-2.33-1.09-3.47,0,0,.6,4.46,.6,4.46Zm29.1-7.26l-4.68-3.91,.9-5.35,4.48,8.78-.7,.48Zm-3.91-4.2l3.34,2.79-2.86-5.61-.48,2.82Z"/>
</svg>