<?xml version="1.0" encoding="UTF-8"?>
<svg id="Layer_1" data-name="Layer 1" xmlns="http://www.w3.org/2000/svg" viewBox="0 0 48.59 43.51">
  <defs>
    <style>
      .cls-1 {
        fill: #fff;
      }
    </style>
  </defs>
  <path class="cls-1" d="M4.98,43.51c-.49,0-.99-.09-1.37-.71-.2-.34-.5-.65-.82-.86-1.52-1-1.65-2.57-1.57-4.12v-.28h3.84l-5.06-2.06,.2-.3c1.93-2.84,2.92-6.16,3.69-9.06,.16-.59,.33-1.26,.36-1.92,.01-.27-.03-.54-.11-.81-.42,1.07-.97,2.18-2.55,2.18-.02,0-.04,0-.06,0h-.28s0-.29,0-.29c-.03-1.27,.75-1.88,1.44-2.43,.41-.32,.8-.63,1.05-1.06l.23-.38,3.4,4.76v-7.57h.67l.11,5.06c.09,4.39,.19,8.78,.29,13.17,.01,.44,.02,.86,.11,.94,.07,.07,.36,.07,.73,.07l.2-.64c.21-.67,.42-1.35,.63-2.03,.14-.47,.28-.94,.42-1.41,.12-.4,.24-.81,.36-1.21q.31-1.02-.38-1.64l-.13-.11c-.48-.43-.82-1.03-1.12-1.62-.25-.5-.44-1.03-.62-1.55-.06-.16-.11-.33-.17-.49-.05-.15-.07-.39,.03-.57,.72-1.32,.84-2.83,.94-4.3l.05-.61c.1-1.28,.16-2.59,.21-3.85,.04-.96,.08-1.91,.14-2.87,.05-.76-.11-1.07-.63-1.22-.14-.04-.33-.16-.43-.49l-.18-.55,4.31,1.45c0-.14,.02-.29,.03-.43,.04-.63,.08-1.22,0-1.78,0-.04-.07-.24-.79-.62-.37-.2-.77-.35-1.19-.5-.18-.07-.36-.13-.54-.2l-.25-.1,.24-.77,.26,.06c.2,.05,.41,.09,.61,.14,.46,.1,.94,.2,1.41,.34,.27,.08,.34,.03,.35,.03,.01-.01,.08-.08,.08-.45,0-1.66-.01-3.84,.03-6.02,.01-.81,.07-1.62,.12-2.41,.02-.36,.05-.72,.07-1.07l.02-.33,.33,.06c.35,.06,.69,.12,1.03,.18,.77,.14,1.51,.26,2.25,.43,1.25,.28,1.5,.77,1.56,2.01,.07,1.41,.34,1.74,1.66,2.05,.54,.13,1.07,.33,1.57,.53,.23,.09,.45,.18,.68,.26l.26,.09-.23,.76-.27-.07c-.27-.07-.54-.13-.81-.19-.62-.15-1.26-.3-1.89-.47-1.14-.32-1.77-1.13-1.79-2.27-.01-.82-.38-1.26-1.16-1.39-.81-.13-1.65-.09-2.3-.04-.09,.08-.23,.34-.23,.46-.03,2-.04,4.15-.01,6.58,.01,1.57,.18,1.78,1.61,2.09,.14,.03,.27,.07,.41,.11l.43,.12-.09,.79-.29-.03c-.13-.01-.26-.02-.39-.03-.32-.02-.64-.04-.96-.15-.36-.12-.48-.08-.51-.06-.03,.02-.11,.12-.13,.5q-.07,2.1,1.7,2.95c.44,.21,.88,.41,1.39,.63l2.23,1.01-2.3-.13c-.02,.09-.03,.18-.02,.26,.16,1.65,.31,3.29,.48,4.94,.14,1.39,.27,2.78,.4,4.18,.11,1.16,.56,1.76,1.43,1.88-.11-.16-.25-.3-.4-.45-.09-.09-.18-.18-.26-.28l-.14-.16,.1-.18c1.88-3.31,2.73-7.26,2.65-12.4l-1.48-.28v-.54s.29-.1,.29-.1h.75c.58,0,1.17,0,1.76,0h.6c.55,0,1.09,0,1.64-.02,.26,0,.5-.15,.62-.36,.11-.19,.11-.4,0-.61-.23-.43-.82-.89-.97-.85-.88,.23-1.36-.27-1.74-.68-.13-.14-.25-.27-.38-.37l-.86-.68,1.09,.15c.24,.03,.49,.06,.73,.09,.56,.07,1.15,.14,1.71,.27,.32,.07,.41,.03,.42,.02,.03-.02,.09-.12,.09-.52-.02-1.87-.02-3.74-.01-5.61V1.57s.59-.21,.59-.21l1.8,2.57-.54,.48-.99-1.14c0,.09,0,.18,0,.27,.01,.55,.03,1.12-.03,1.68-.09,.85,.16,1.47,.84,2.13,1.1,1.06,2.17,2.19,3.2,3.28,.35,.36,.69,.73,1.04,1.09,.12,.13,.22,.28,.32,.42,.03,.05,.06,.09,.09,.14,.28,.27,.56,.54,.84,.81,.63,.6,1.27,1.22,1.89,1.86,3.3,3.45,6.59,6.9,9.88,10.36l2.98,3.13c.06,.06,.12,.13,.2,.23l.91,1.06-1.06-.4c-.35-.13-.68-.27-1-.41-.68-.29-1.31-.56-1.95-.65-.67-.1-1.36-.02-2.08,.06-.19,.02-.38,.04-.57,.06l2.33,2.36-.38,.61-.23-.09c-2.19-.88-4.37-.73-6.99-.44-.74,.08-.92-.44-1.04-.82-.22-.67-.43-1.3-.63-1.93-.58-1.78-1.17-3.63-1.83-5.41-.47-1.27-1.12-2.31-1.97-3.16,.01,.12,.02,.24,.03,.36,.08,.82,.16,1.67,.32,2.48,.26,1.31,.66,2.64,1.01,3.78,.06,.18,.22,.36,.38,.52,.08,.08,.16,.16,.22,.24l.18,.23-3.05,2.35c.11,.1,.2,.18,.3,.25l2.16,1.6c1.61,1.19,3.22,2.38,4.82,3.58,.27,.21,.44,.21,.76,.03,2.19-1.23,4.38-2.45,6.57-3.67l1.81-1c.22-.12,.48-.25,.82-.21l.82,.09-1.39,.9c-.52,.34-1.03,.68-1.56,1-.5,.31-1,.61-1.51,.91-.72,.43-1.43,.86-2.14,1.31-.07,.05-.15,.19-.23,.32-.05,.1-.11,.2-.17,.28-.04,.05-.08,.11-.11,.17-.11,.18-.24,.39-.44,.52-.49,.32-1,.62-1.49,.9l-.42,.24c-.53,.31-.75,.68-.73,1.2,.05,1.14-.57,1.86-1.18,2.42-.84,.77-1.67,1.66-2.06,2.98l-.06,.21h-6.07c-7.93,0-15.87,0-23.8,0h0Zm-3.18-5.39c-.05,1.49,.18,2.58,1.32,3.32,.39,.25,.75,.63,1,1.05,.22,.36,.46,.43,.87,.43h0c7.93,0,15.87-.01,23.8,0h5.64c.46-1.35,1.35-2.29,2.16-3.03,.54-.49,1.03-1.06,.99-1.96-.03-.74,.3-1.31,1.02-1.73l.42-.25c.49-.28,.99-.57,1.46-.88,.09-.06,.18-.2,.27-.34,.04-.07,.09-.14,.13-.2,.05-.07,.09-.15,.14-.23,.06-.11,.12-.22,.2-.33-.87,.49-1.74,.97-2.61,1.46-.21,.12-.41,.19-.6,.2l.36,.29-.32,.22c-1.81,1.25-3.61,1.99-5.5,2.29-.68,.11-1.43,.16-2.28,.17h0c-.22,0-.42-.08-.6-.17-.03,.05-.07,.1-.11,.14-.22,.2-.52,.17-.76,.15-.09,0-.18-.02-.26-.01-.31,.02-.55-.04-.72-.19l-.05,.02c-.61,.18-.99,.23-1.27,.02-.28-.21-.34-.59-.34-1.18-.01-1.98-.03-3.95-.02-5.93,0-.24,.06-.47,.12-.69,.02-.09,.05-.18,.07-.27l.06-.27,.72,.11,.05,.31,.42-.1h0c.09-.02,.19-.05,.28-.07,.18-.05,.35-.1,.43-.18,.49-.55,.96-.67,1.39-.59l-.3-.26,3.14-2.41c-.1-.11-.21-.23-.31-.36l-.05,.56h-.28l-.37,.4c-.56,.6-1.55,.62-2.58,.06l-.31-.17-1.11,1.37-1.16-1.28,.36-.45c-.28-.13-.49-.53-.54-.76-.06-.28-.05-.56-.04-.87,0-.13,.01-.28,.01-.43v-.32l.32,.03c2.11,.17,3.99,.41,5.63,1.65-.02-.05-.05-.1-.06-.16-.36-1.15-.76-2.49-1.03-3.84-.16-.84-.24-1.71-.32-2.54-.03-.37-.07-.74-.11-1.1l-.08-.72,.27,.22c-.71-.95-.67-2.06-.63-3.15,0-.15,.01-.31,.01-.46,0-.11,.05-.21,.13-.3-.7,0-1.42,0-2.13-.03-.58-.03-1.12-.23-1.47-.4-.24-.12-.43-.3-.56-.54-.02,.05-.04,.09-.07,.14-.22,.39-.65,.64-1.11,.65-.55,.02-1.1,.02-1.66,.02h-.6c-.24,0-.49,0-.73,0v.08c.11,5.27-.72,9.33-2.61,12.75l.08,.08,.75-.5c1.55-1.04,3.22-1.58,5.4-1.75l.32-.03v2.32h-.29l.3,.32-.18,.2c-.06,.07-.12,.14-.17,.22-.16,.22-.35,.47-.63,.54-.32,.07-.54-.02-.67-.12-.25-.18-.4-.51-.45-.98l-.25,.31c-.58,.72-1.37,1.1-2.12,1.05-.44-.03-.84-.19-1.18-.47,.84,1.34,1.72,1.82,2.83,1.55,.44-.11,.82-.03,1.05,.21,.1,.11,.17,.24,.21,.39,.26-.15,.62-.21,.81-.21h0c.33,0,.78,.46,.78,.81,.03,1.97,.03,3.9,.02,5.95v1.78h-4.1c-.14,.07-.31,.1-.51,.09-.73-.02-1.46-.03-2.19-.04-.47,0-.93-.01-1.4-.02-.25,0-.46-.06-.64-.17v.02s-2.17,0-2.17,0v-.08h-1.26v-7.39l.74-.08,.04,.3,.18-.07c-.05-.31-.03-.54,.13-.71,.25-.26,.67-.19,1.09-.09,.87,.2,1.44,.02,1.9-.62,.29-.4,.6-.76,.94-1.14-.51,.36-.83,.53-1.15,.44-.33-.1-.49-.44-.64-.82l-.02-.05v.02c-.41,.64-.85,.77-1.16,.77-.36,0-.89-.2-1.42-1.11l-.24-.41c-.21-.09-.35-.21-.44-.37-.17-.31-.07-.65,.03-.95,.05-.15,.09-.3,.09-.41v-.26s.26-.03,.26-.03c1.3-.16,2.87,.65,3.68,1.84-.14-.33-.23-.71-.28-1.16-.13-1.39-.27-2.78-.4-4.17-.16-1.65-.32-3.29-.48-4.94-.02-.18,.02-.34,.04-.49,.01-.06,.02-.11,.03-.17l.02-.15c-.38-.17-.72-.33-1.06-.49-1.44-.69-1.9-.95-2.02-1.86-.01,.2-.02,.4-.03,.6v.39s-3.2-1.07-3.2-1.07c.16,.34,.17,.75,.15,1.12-.06,.95-.1,1.9-.14,2.85-.05,1.27-.1,2.59-.21,3.88l-.05,.6c-.11,1.46-.22,2.96-.9,4.33l.15,.03v-.33s.16-.08,.16-.08c.99-.53,2.21-1.2,3.7-.87l.23,.05v2.1l-.99-.13v.08c-.11,.73-.51,1.13-1.24,1.22-.56,.07-1.32-.09-1.89-1.15,.16,.46,.33,.94,.55,1.36,.26,.51,.58,1.09,.99,1.45l.13,.11c.48,.43,.72,.66,.78,.98,.06-.12,.12-.24,.18-.36,.12-.22,.33-.35,.52-.45,.07-.04,.14-.08,.2-.12l.29-.21,.15,.33c.03,.08,.08,.15,.12,.23,.12,.2,.24,.43,.24,.69-.02,1.96-.08,4.01-.16,6.08-.01,.31-.33,.83-.68,.86-.55,.05-1.1,.04-1.69,.03-.22,0-.45,0-.69,0h-.33l.04-.33c.02-.17,.04-.33,.06-.5l-.22,.71h-.21c-1.47,.02-1.61-.11-1.64-1.57-.07-3.24-.14-6.47-.21-9.71l-.26,.05-2.59-3.63c.04,.22,.06,.44,.05,.67-.03,.71-.21,1.43-.37,2.04-.76,2.84-1.72,6.09-3.57,8.93l5.72,2.33-.18,.59H1.8Zm13.41-7.14s-.07,0-.08,0c.02,0,0,.13,.15,.63,.19,.63,.38,1.27,.57,1.9,.39,1.3,.79,2.64,1.16,3.98,.15,.55,.39,.67,.71,.68,.46,0,.93,.02,1.39,.02,.73,.01,1.46,.02,2.2,.04,.22,0,.3-.02,.39-.34,.37-1.33,.75-2.66,1.14-3.98,.28-.97,.56-1.94,.84-2.91,.08-.27,.07-.49-.03-.59-.08-.09-.26-.1-.49-.05-1.38,.34-2.53-.28-3.51-1.89l-.03,.04c-.16,.19-.32,.37-.48,.55-.34,.38-.66,.75-.94,1.14-.6,.84-1.4,1.11-2.51,.85-.26-.06-.4-.07-.47-.07Zm13.37,7.14c.09,0,.18,0,.27,.02,.1,0,.27,.02,.32,0,0,0,.01-.03,.02-.12v-.42s.4,.15,.4,.15c.08,.03,.17,.07,.26,.12,.15,.07,.31,.15,.43,.15h0c.82,0,1.54-.06,2.19-.16,1.69-.26,3.31-.91,4.93-1.97-.14-.11-.26-.22-.39-.31-.66-.48-1.32-.96-1.98-1.44-1.49-1.08-3.03-2.2-4.52-3.33-.77-.58-1.2-.79-1.8-.12-.19,.21-.46,.28-.71,.35-.01,0-.02,0-.04,0l1.09,4.01-.69,.22-.82-2.76,.08,1.11h-.57l-.09-.25-.25-1.65c0,1.89,0,3.77,.02,5.66,0,.56,.07,.69,.1,.72,.04,.03,.17,.04,.53-.05l-.35-3.89,.73,1.79c.22,.54,.34,1.13,.35,1.8,0,.16,.03,.28,.09,.33,.06,.06,.2,.06,.31,.05,.03,0,.06,0,.09,0Zm-6.01,.03h2.75v-1.2c0-2.04,0-3.97-.02-5.94-.02-.05-.16-.21-.23-.24-.2,0-.49,.11-.54,.17-.55,1.94-1.07,3.89-1.62,5.96l-.33,1.24Zm-7.16-.12h.88l-1.47-4.84v1.27l-.58,.04v-.05s0,3.51,0,3.51h.34l-.27-2.82,.67-.05,.44,2.95Zm-4.91-.08c.12,0,.25,0,.36,0,.6,0,1.12,.01,1.64-.03,.02-.03,.14-.23,.14-.3,.08-2.07,.14-4.11,.16-6.06,0-.1-.08-.25-.16-.39-.11,.06-.22,.13-.25,.19-.94,1.83-1.53,3.87-1.89,6.59Zm29.31-7.93c1.1,0,2.25,.11,3.37,.46l-1.99-2.02v-.18s.1-.43,.1-.43h.22c.31-.03,.62-.07,.94-.1,.73-.08,1.49-.16,2.23-.06,.64,.09,1.24,.33,1.88,.6l-2.46-2.58c-2.59-2.72-5.17-5.43-7.76-8.14,1.66,2.16,3.21,4.56,4.22,7.38,.2,.56,.35,1.14,.51,1.7,.07,.26,.14,.52,.21,.77l.06,.19-.51,.39-.18-.16c-.17-.15-.34-.3-.51-.45-.38-.33-.76-.66-1.13-1.02-1.18-1.14-2.36-2.29-3.54-3.43-1.02-.99-2.05-1.99-3.07-2.98,.55,.72,.99,1.55,1.35,2.51,.66,1.79,1.26,3.64,1.84,5.43,.2,.63,.41,1.26,.61,1.89,.15,.44,.18,.49,.43,.46,.98-.11,2.07-.23,3.2-.23Zm-24.62-1.79c.18,.17,.35,.26,.51,.27,.1,0,.24-.05,.34-.13l-.84-.14Zm5.36-.45c.25,.21,.54,.34,.86,.36,.38,.03,.78-.1,1.13-.36h-1.99Zm-2.52,.32l.14,.03c-.09-.08-.18-.17-.25-.27,.02,.05,.04,.09,.06,.14l.05,.11Zm-8.23-.76c.33,.58,.75,.84,1.26,.77,.31-.04,.54-.14,.65-.44l-1.91-.33Zm17.34,.29l.32,.35,.29-.35h-.61Zm-2.74-.01c.05,.16,.12,.22,.15,.25,.03,.02,.09,.05,.2,.02,.06-.01,.17-.16,.25-.27h-.6Zm-10.12-1.52c-.02,.11-.05,.21-.09,.31-.06,.19-.12,.4-.07,.5,.03,.06,.13,.11,.27,.16,.72,.21,1.47,.36,2.26,.51,.17,.03,.34,.07,.51,.1-.64-.93-1.86-1.61-2.88-1.58Zm5.15,1.1h4.31s-4.32-.01-4.32-.01h.01Zm11.28-12.41c0,.14,0,.28-.01,.42-.04,1.15-.08,2.24,.79,3.08,1.46,1.41,2.92,2.82,4.38,4.24,1.18,1.14,2.36,2.29,3.54,3.43,.36,.34,.73,.67,1.1,1,0,0,.02,.02,.03,.03-.02-.06-.03-.11-.05-.17-.15-.55-.3-1.12-.49-1.65-1.26-3.54-3.43-6.43-5.58-9.02-.64-.77-1.3-1.53-1.95-2.29l-.71,.52c-.23,.16-.46,.21-.65,.25-.07,.01-.14,.03-.21,.05-.07,.02-.16,.09-.2,.13ZM10.16,26.51l2.6,.34v-.95c-.92-.14-1.72,.16-2.6,.61Zm16.75,.1c1.29,.03,2.6,.03,3.86,.03h.52c-1.34-.85-2.84-1.07-4.61-1.22,0,.05,0,.09,0,.13-.01,.28-.02,.52,.02,.73,.02,.12,.14,.29,.2,.34Zm-5.56-.02h3.9v-1.09c-1.51,.15-2.76,.5-3.9,1.09ZM3.8,22.67c-.23,.24-.49,.45-.75,.65-.59,.47-1.12,.88-1.21,1.66,1.1-.11,1.43-.97,1.85-2.04,.03-.09,.07-.18,.11-.27ZM26.74,12.24c-.05,0-.16,.02-.19,.05-.09,.17-.12,.44-.04,.68,.07,.21,.2,.38,.37,.47,.43,.21,.86,.33,1.24,.35,.81,.04,1.65,.03,2.45,.02,.33,0,.66,0,.99,0h.87s-.05-.05-.07-.08c-.3-.35-.6-.7-.9-1.05-.08-.07-.17-.13-.25-.19-.2-.16-.42-.32-.61-.51-1.08-1.05-2.16-2.11-3.28-3.21l-.74-.73v2.72l2.52,.59-.29,.36c-.76,.94-1.05,1.02-2.06,.53,0,0,0,0-.02,0Zm-2.23-1.01c.52,0,1.14,.61,1.42,1.04,.03-.11,.07-.21,.13-.3,.16-.29,.68-.39,.95-.26,.6,.29,.72,.35,1.04-.01l-2.06-.48v-.3c-.04,.06-.09,.12-.15,.17-.27,.22-.64,.17-.93,.1-.5-.12-1.02-.18-1.53-.25,.3,.29,.54,.43,.97,.32,.05-.01,.1-.02,.15-.02Zm-12.06-.44c.47,.25,.99,.6,1.05,1.04,0,.03,0,.05,0,.08,.05-.22,.14-.44,.34-.58,.11-.07,.22-.11,.34-.13-.29-.18-.48-.41-.61-.74-.05,.11-.12,.2-.21,.27-.27,.21-.62,.14-.86,.07-.02,0-.04-.01-.06-.02ZM26.14,2.38v.12l.07-.02-.07-.1ZM15.35,1.31c.42,0,.86,.02,1.29,.09,.52,.08,.93,.3,1.21,.63-.11-.49-.36-.64-1.03-.79-.73-.16-1.45-.29-2.22-.42-.23-.04-.47-.08-.71-.12-.01,.25-.03,.5-.05,.75,0,.03,0,.06,0,.08,.09-.09,.2-.15,.31-.16,.35-.03,.76-.06,1.2-.06Zm-1.09,.62h0Z"/>
</svg>