<?xml version="1.0" encoding="UTF-8"?>
<svg id="Layer_1" data-name="Layer 1" xmlns="http://www.w3.org/2000/svg" viewBox="0 0 51.53 43.51">
  <defs>
    <style>
      .cls-1 {
        fill: #fff;
      }
    </style>
  </defs>
  <path class="cls-1" d="M37.18,43.51H2.92v-.76c0-.33,0-.66-.02-.98v-.74c0-.65,.03-1.27-.18-1.85-.05-.13-.11-.21-.14-.24-.21-.14-.42-.27-.63-.4-.19-.12-.38-.23-.57-.35-.17-.11-.32-.3-.38-.49-.23-.65-.45-1.3-.66-1.96-.05-.15-.07-.33-.06-.5l.03-.57c.06-1.07,.12-2.15,.2-3.22,.11-1.45-.05-2.68-.49-3.76l-.02-.12v-.22l.51-.83c.34-.55,.68-1.1,1.02-1.65l7.61-12.29c.44-.71,.88-1.42,1.32-2.12,.06-.09,.07-.14,.04-.24-.22-.86-.42-1.73-.62-2.59-.04-.17-.07-.35-.1-.56l-.14-.84,1.07,.3c.63,.18,1.23,.35,1.83,.51,.27-.44,.54-.88,.81-1.33l.43-.72c.19-.32,.39-.64,.58-.95,.41-.66,.82-1.33,1.21-2.01,.36-.63,.9-.98,1.64-1.06,2.03-.22,4.07-.42,6.1-.63,1.04-.1,2.09-.2,3.13-.28v-.06l.06,.05h0c.23,0,.45,.14,.57,.26,.19,.2,.38,.41,.56,.63,.11,.13,.22,.26,.34,.39,.41,.46,.82,.91,1.23,1.36l17.31,19.12c.4,.44,.8,.89,1.2,1.33l1.27,1.39c.53,.57,1.05,1.14,1.57,1.72,.27,.3,.53,.61,.8,.91,.13,.16,.2,.34,.18,.52s-.12,.35-.28,.47l-.36,.28c-.51,.39-1.03,.78-1.54,1.17l-3.3,2.49c-.66,.5-1.32,1-1.98,1.49-.4,.3-.8,.58-1.19,.87l-.65,.47c-.1,.07-.2,.14-.3,.22l1.27,1.25-.41,.52c-.17,.21-.32,.41-.48,.6-.48,.56-.97,1.12-1.45,1.68l-.2,.23c-.71,.82-1.43,1.64-2.15,2.46-.16,.19-.33,.37-.5,.56-.18,.2-.36,.4-.54,.61-.04,.05-.07,.11-.11,.17l-.17,.27v.02Zm-33.62-.65H36.81c.05-.08,.09-.15,.15-.21,.18-.21,.36-.41,.55-.61,.16-.18,.33-.36,.49-.55,.72-.82,1.43-1.63,2.14-2.45l.2-.23c.48-.56,.97-1.11,1.45-1.67,.16-.18,.31-.38,.47-.58l.05-.07-1.4-1.37,.5-.37c.15-.11,.29-.21,.42-.31l.65-.48c.4-.29,.79-.57,1.19-.87,.66-.49,1.32-.99,1.98-1.49l3.3-2.49c.42-.32,.83-.63,1.25-.95-.33,.2-.66,.41-.99,.61-1.36,.85-2.71,1.7-4.07,2.56l-.84,.52c-.75,.47-1.52,.95-2.26,1.46-.69,.47-1.43,.96-2.25,1.26-1.91,.7-3.64,.38-5.15-.94-.68-.6-1.27-1.28-1.78-2.09l-.1,.18-.53-.68c-.17-.21-.33-.42-.48-.63-.24-.35-.35-.31-.43-.28l-.66,.25,.24-.67c.09-.25,.19-.5,.28-.74,.2-.52,.39-1.02,.53-1.53,.63-2.2,.62-4.37-.01-6.43-.04-.12-.06-.28-.07-.44l-.3-.07-.77,.23c-.85,.25-1.74,.34-2.66,.26-.21-.02-.41-.05-.62-.08-.2-.03-.39-.06-.59-.07-.21-.02-.37-.09-.47-.22-.17-.21-.14-.5-.13-.59v-.79l.85,.16c-.11-.03-.21-.06-.32-.09-.57-.15-.57-.4-.51-.9l.04-.31,.32,.03c1.66,.14,3.38,.29,4.81,1.74l.36,.37c.02-.14,.05-.28,.1-.41,1.09-2.53,1.4-5.27,.93-8.14-.07-.42-.18-.85-.28-1.26-.06-.23-.11-.46-.17-.69-.03-.13-.05-.27-.07-.42h0l-.78-.23-.36,.23c-.75,.48-1.56,.61-2.51,.4-.47-.1-.92-.28-1.36-.45-.14-.05-.28-.11-.42-.16-.45-.16-.39-.57-.37-.73,0-.03,.01-.09,0-.1l-.02-.05v1.02l-4.02-1.85,.12-.48-.63-.11h0c.48,1.18,1,2.59,1.22,4.16,.17,1.23,.15,2.22-.09,3.12-.07,.25-.16,.49-.25,.72-.04,.1-.08,.2-.11,.3l-.09,.26-.5-.09-.12-.24-.82-4.82c-.29-.09-.58-.18-.87-.28l-.06,.44h-.32l-3.45-.33v-1.43l.23,.07c-.17-.1-.25-.27-.26-.5v.46l-.26-.07c.21,.14,.3,.36,.26,.67-.01,.09,0,.19,0,.29v.7l-4.27-1.85,.02-.05c-.1-.01-.2-.05-.3-.11-.25-.15-.51-.28-.77-.41l-.48-.24c.19,.82,.39,1.64,.59,2.46,.04,.15,.04,.28,.02,.4l.03,.2c.27,1.69,.16,3.29-.33,4.87-.36,1.15-1.46,3.24-2.27,3.76v.06l1.25,.26,.03-.43,.74-.02c1.57-.06,3.2-.11,4.83,.31l.24,.06v.58l-.03,.68h.02v1.62h-.34c-2.01-.09-4-.83-6.29-2.33l-.15-.1s0,.03,.01,.04c.61,2.7,.85,4.94,.76,7.04-.05,1.15-.21,2.18-.49,3.16-.02,.07-.04,.13-.07,.21l-.21,.59-.79-.74c-.33-.31-.65-.61-.97-.9-.16-.14-.35-.31-.49-.34-1.51-.33-3.03-.64-4.55-.95l-1.32-.27c.36,1.08,.49,2.28,.39,3.66-.08,1.07-.14,2.14-.2,3.21l-.03,.57c0,.09,0,.19,.03,.26,.21,.65,.43,1.3,.66,1.93,.02,.07,.09,.14,.13,.17,.18,.12,.36,.23,.54,.34,.22,.13,.44,.27,.66,.42,.22,.15,.34,.44,.39,.55,.25,.69,.24,1.4,.22,2.09,0,.24,0,.47,0,.7,0,.33,0,.67,0,1v.11l.04,.05Zm29.86-11.68c.48,.75,1.03,1.38,1.66,1.94,1.33,1.16,2.8,1.43,4.49,.81,.75-.27,1.45-.73,2.1-1.18,.75-.52,1.53-1,2.29-1.47l.84-.52c1.35-.85,2.71-1.71,4.07-2.56,.37-.23,.74-.46,1.12-.69l.23-.14c-.04-.08-.09-.15-.13-.22-.57-.84-1.33-1.39-1.99-1.81-1.12-.71-2.35-1.03-3.65-.94-1.45,.09-2.79,.54-3.99,1.33l-.45,.3c-.74,.49-1.5,.99-2.22,1.55-.85,.67-1.7,1.38-2.53,2.08-.37,.32-.75,.63-1.12,.94-.21,.17-.41,.34-.63,.52l-.09,.08v-.02Zm-1.74-1.69c.32,.11,.53,.4,.61,.53,.12,.17,.24,.33,.37,.49l.4-.92c.39-.89,.77-1.78,1.14-2.69,.44-1.09,.8-2.35,1.14-3.95,.58-2.7,.72-5.19,.42-7.62-.29-2.36-1-4.45-2.14-6.21-.36-.57-.8-1.1-1.22-1.61l-.13-.15c-.54-.66-1.11-1.32-1.7-1.97-.66-.73-1.32-1.45-1.99-2.17l-1.04-1.12c-.09-.1-.17-.2-.26-.3-.09-.11-.18-.21-.28-.31V7.17c.44,.12,.86,.24,1.28,.35l4.46,1.24,.07,.43c.02,.13,.04,.25,.06,.37,.05,.22,.11,.45,.16,.67,.11,.43,.21,.87,.29,1.31,.49,3,.17,5.86-.97,8.5-.08,.18-.08,.51,0,.74,.67,2.19,.67,4.47,0,6.8-.15,.54-.35,1.05-.55,1.59-.04,.1-.08,.2-.11,.3v.02Zm3.12-19.62c.82,1.6,1.36,3.4,1.6,5.39,.3,2.5,.16,5.06-.43,7.83-.35,1.64-.72,2.92-1.18,4.05-.37,.91-.76,1.81-1.15,2.7l-.2,.46c.09-.07,.18-.15,.27-.22,.37-.31,.75-.63,1.12-.94,.83-.7,1.68-1.42,2.55-2.09,.73-.57,1.51-1.08,2.26-1.58l.45-.29c1.29-.85,2.74-1.34,4.31-1.44,1.35-.09,2.62,.22,3.79,.89l-.96-1.05c-.4-.44-.81-.89-1.21-1.33l-11.22-12.39h0ZM1.09,27.24l1.13,.23c1.52,.31,3.04,.62,4.55,.95,.31,.07,.57,.3,.79,.49,.33,.29,.66,.6,.99,.92l.04,.04c.23-.87,.37-1.79,.41-2.82,.09-2.04-.15-4.23-.74-6.87,0-.04-.02-.06-.02-.08l-.31,.05v-.79l-.31-.2,.3,.06v-.42l.28-.04c.32-.1,1.52-1.82,2.02-3.43,.37-1.17,.51-2.36,.43-3.59-.6,.98-1.2,1.95-1.8,2.93l-3.7,6.01c-.59,.97-1.19,1.93-1.78,2.9-.39,.63-.78,1.26-1.18,1.89l-1.02,1.64s-.05,.08-.07,.12h0Zm9.97-6.7c1.39,.72,2.67,1.11,3.95,1.21v-.4l-3.95-.81Zm15.83-.33c.17,0,.33,.02,.49,.05,.19,.03,.38,.06,.57,.07,.18,.01,.35,.02,.52,.02l-1.73-.33v.07c-.01,.09,0,.12,0,.12h.15Zm-12.93-.34l1,.17c-.33-.07-.67-.13-1-.17Zm13.51-1c.17,.05,.33,.1,.5,.14,.5,.12,1,.24,1.51,.36-.63-.29-1.31-.42-2-.5h-.01Zm-5.68-8.18l.54,3.17c.2-.79,.22-1.68,.06-2.8-.21-1.5-.71-2.86-1.17-4-.05-.12-.08-.25-.11-.4l-.16-.68,4.76,.83,.11-5.77-8.82,.99v6.13c.5,.17,.99,.34,1.47,.51,.46,.16,.92,.32,1.39,.48,.57,.19,1.15,.38,1.73,.56,.18,.05,.3,.15,.37,.28,.07,.14,.08,.3,0,.5l-.06,.17-.11,.03Zm-7-1.81l.89,.39v-.13s-.02,0-.04-.01c-.3-.08-.59-.16-.86-.24h0Zm12.21-.38c.13,.05,.26,.1,.39,.15,.44,.17,.85,.33,1.27,.42,.4,.09,.76,.11,1.1,.05l-2.76-.63h0Zm-1.42-.33l.11,.05v-.02l-.11-.03Zm1.15-.07v0Zm-1.58-.71l1.19,.3v.29l.24-.19h.14c-.24-.1-.36-.28-.36-.56v.37l-1.2-.21h0Zm-11.69-.16l2.23,.59,.09-4.52s-2.32,3.93-2.32,3.93Zm-3.02-.09c.01,.08,.03,.16,.04,.23l.06-.2h-.02l-.08-.03Zm2.16-.08h0Zm4.54,31.53c-.28,0-.56-.02-.86-.07-.66-.1-.73-.28-.73-.94v-3.8h.01v-1.83l3.89,1.58-.06,.51,.9,.06c.03-.43,.17-.81,.29-1.15,.08-.2,.15-.41,.2-.62,.14-.58,.27-1.16,.4-1.74l.25-1.1h.24l-.04-.27,.33-.07,3.71-.41v2.35h-1.09c-.02,.15-.05,.26-.07,.38-.03,.13-.05,.27-.07,.4-.05,.37-.25,.58-.58,.63-.2,.03-.39,.07-.59,.11-.17,.03-.33,.07-.5,.1-.03,0-.05,0-.1,.13l-.27,.69c-.28,.72-.56,1.45-.92,2.13-1.03,1.94-2.49,2.92-4.34,2.92h0Zm-.93-.73s.11,.02,.17,.03c2,.29,3.47-.53,4.53-2.52,.34-.64,.62-1.36,.89-2.06l.27-.69c.08-.2,.22-.46,.59-.53,.16-.03,.32-.06,.48-.09,.21-.04,.41-.09,.62-.12,.01,0,.03-.01,.03-.08,.02-.15,.05-.3,.08-.44,.02-.13,.05-.25,.07-.38,.07-.5,.44-.53,.59-.53h.5v-.02l-3.07-.27-.13,.59c-.13,.58-.26,1.16-.4,1.74-.06,.25-.14,.47-.22,.7-.15,.41-.29,.8-.25,1.25l.04,.38-4.78-.32v3.37h-.01Zm.01-4.67l.85,.08-.85-.34v.26Zm-1.89,5.26c-.16,0-.32,0-.49-.02-.78-.07-1.41-.3-1.93-.71-.9-.72-1.43-1.78-1.56-3.17-.02-.23-.04-.45-.05-.69l-.05-.74,3.64,.53-3.31-.55,.02-.58,.29-.07,4.51-.33v6.33h-1.07Zm-3.38-4.58c.01,.21,.02,.41,.05,.61,.12,1.21,.56,2.12,1.32,2.73,.42,.33,.93,.52,1.58,.57,.26,.02,.52,.02,.8,0h.06v-3.37l-3.8-.55h-.01Zm2.51-.97l1.28,.21v-.31l-1.28,.09h0Zm-2.55-.13h0Zm14.96-1.95l-.04-1.04h.02v-1.1l.41,.11c.25,.07,.5,.13,.75,.19,.84,.2,1.72,.41,2.54,.86l1.43,.77-3.07-.29v.26l-.29,.08-1.75,.18v-.02Zm-4.4-4.81l-.52-1.66c-.09-.28-.17-.55-.25-.82-.12-.4-.23-.77-.32-1.15-.04-.17-.02-.4,.05-.56,.1-.21,.2-.4,.31-.6l.46-.85,.25,.67c.35,.92,.47,2.65,.26,3.71l-.25,1.27h.01Zm-.42-3.97l-.02,.05s-.02,.1-.01,.13c.04,.15,.08,.3,.12,.45-.02-.22-.05-.43-.08-.63h-.01Zm-1.47,.39h-3.48v-1.53l.82,.19-.06-.02c-.08-.03-.15-.05-.21-.06-.21-.03-.36-.12-.46-.26-.15-.23-.1-.51-.04-.7l.1-.38,2.85,1.41-.17,.49,1.03,.24-.07,.58-.29,.05h-.02Zm-2.83-.66h.22l-.22-.05v.05Zm1.9-.46h0Zm7.31-.7l-4.04-1.7,.12-.59h.34l.19,.05,.15-.53,.29-.02,.47,.05c.69,.07,1.37,.14,2.06,.22,.21,.03,.31,.21,.37,.32,.01,.02,.02,.04,.03,.06l.13,.19-.26,.36-.27,.04-.62-.13,1.04,.25v1.43Z"/>
</svg>